…
    - **length:** length of seq

    - **parity:** simply check if starting integer is even or odd

    - **max_val:** finds the highest value in seq using `max()`, but not
      before changing seq from a list to a vector using `unlist()`

  - Create a for loop and use `add_row()` to add rows for integers 2 to
    10000

<!-- -->

    ## # A tibble: 10,000 × 5
    ##    start seq        length parity max_val
    ##    <dbl> <list>      <int> <chr>    <dbl>
    ##  1     1 <dbl [1]>       1 ODD          1
    ##  2     2 <dbl [2]>       2 EVEN         2
    ##  3     3 <dbl [8]>       8 ODD         16
    ##  4     4 <dbl [3]>       3 EVEN         4
    ##  5     5 <dbl [6]>       6 ODD         16
    ##  6     6 <dbl [9]>       9 EVEN        16
    ##  7     7 <dbl [17]>     17 ODD         52
    ##  8     8 <dbl [4]>       4 EVEN         8
    ##  9     9 <dbl [20]>     20 ODD         52
    ## 10    10 <dbl [7]>       7 EVEN        16
    ## # ℹ 9,990 more rows
…
  - If there is a point after `below_init <- TRUE` where the next number
    is higher than the starting integer, set `above_init <- TRUE`

  - If both `below_init` and `above_init` is `TRUE`, then return `TRUE`

- Filtering the data

  - Simply use `filter()` on `collatz_df`, where it filters only rows
    that returns `TRUE` for the `backtrack` function. This will be saved
    inside `backtracks_df`

#### Resulting backtracks_df

    ## # A tibble: 8,229 × 5
    ##    start seq        length parity max_val
    ##    <dbl> <list>      <int> <chr>    <dbl>
    ##  1     6 <dbl [9]>       9 EVEN        16
    ##  2     7 <dbl [17]>     17 ODD         52
    ##  3     9 <dbl [20]>     20 ODD         52
    ##  4    10 <dbl [7]>       7 EVEN        16
    ##  5    11 <dbl [15]>     15 ODD         52
    ##  6    12 <dbl [10]>     10 EVEN        16
    ##  7    13 <dbl [10]>     10 ODD         40
    ##  8    14 <dbl [18]>     18 EVEN        52
    ##  9    15 <dbl [18]>     18 ODD        160
    ## 10    17 <dbl [13]>     13 ODD         52
    ## # ℹ 8,219 more rows
…
- Filtering the data

  - Using `backtracks_df`, mutate the data so it has a new column
    `max_backtrack`, whose value is obtained from using
    `max_backtrack function`

  - Use `pull()` to get the new column as a vector. Save it in
    `max_after_backtrack`

#### Resulting max_after_backtrack

Converted to the tibble for the sake of the README. The original code
should output a very long vector instead.

    ## # A tibble: 8,229 × 1
    ##    max_after_backtrack
    ##                  <dbl>
    ##  1                  16
    ##  2                  16
    ##  3                  52
    ##  4                  16
    ##  5                  16
    ##  6                  16
    ##  7                  16
    ##  8                  52
    ##  9                  16
    ## 10                  40
    ## # ℹ 8,219 more rows
…
#### Below are the results obtained after the Rcode computational run

##### Part 1: Collatz Sequence Table

    ## # A tibble: 10,000 × 8
    ##    start seq        length parity max_val  even   odd even_odd_ratio
    ##    <dbl> <list>      <int> <chr>    <dbl> <int> <int>          <dbl>
    ##  1     1 <dbl [1]>       1 ODD          1     0     1           0   
    ##  2     2 <dbl [2]>       2 EVEN         2     1     1           1   
    ##  3     3 <dbl [8]>       8 ODD         16     5     3           1.67
    ##  4     4 <dbl [3]>       3 EVEN         4     2     1           2   
    ##  5     5 <dbl [6]>       6 ODD         16     4     2           2   
    ##  6     6 <dbl [9]>       9 EVEN        16     6     3           2   
    ##  7     7 <dbl [17]>     17 ODD         52    11     6           1.83
    ##  8     8 <dbl [4]>       4 EVEN         8     3     1           3   
    ##  9     9 <dbl [20]>     20 ODD         52    13     7           1.86
    ## 10    10 <dbl [7]>       7 EVEN        16     5     2           2.5 
    ## # ℹ 9,990 more rows
…
